%!PS-Adobe-3.0 EPSF-3.0
%%Title: /Users/javlintor/Desktop/introduccion-machine-learning/Imagen.eps
%%Creator: matplotlib version 3.3.2, http://matplotlib.org/
%%CreationDate: Fri Sep 18 17:30:18 2020
%%Orientation: portrait
%%BoundingBox: 90.0 252.0 522.0 540.0
%%EndComments
%%BeginProlog
/mpldict 8 dict def
mpldict begin
/m { moveto } bind def
/l { lineto } bind def
/r { rlineto } bind def
/c { curveto } bind def
/cl { closepath } bind def
/box {
      m
      1 index 0 r
      0 exch r
      neg 0 r
      cl
    } bind def
/clipbox {
      box
      clip
      newpath
    } bind def
%!PS-Adobe-3.0 Resource-Font
%%Title: DejaVu Sans
%%Copyright: Copyright (c) 2003 by Bitstream, Inc. All Rights Reserved. Copyright (c) 2006 by Tavmjong Bah. All Rights Reserved. DejaVu changes are in public domain 
%%Creator: Converted from TrueType to type 3 by PPR
25 dict begin
/_d{bind def}bind def
/_m{moveto}_d
/_l{lineto}_d
/_cl{closepath eofill}_d
/_c{curveto}_d
/_sc{7 -1 roll{setcachedevice}{pop pop pop pop pop pop}ifelse}_d
/_e{exec}_d
/FontName /DejaVuSans def
/PaintType 0 def
/FontMatrix[.001 0 0 .001 0 0]def
/FontBBox[-1021 -463 1793 1232]def
/FontType 3 def
/Encoding [ /space /zero /one /two /three /four /five /D /E /M /R /U /a /d /e /g /i /l /m /n /o /r /s /t /u /v /acute /iacute /dotlessi ] def
/FontInfo 10 dict dup begin
/FamilyName (DejaVu Sans) def
/FullName (DejaVu Sans) def
/Notice (Copyright (c) 2003 by Bitstream, Inc. All Rights Reserved. Copyright (c) 2006 by Tavmjong Bah. All Rights Reserved. DejaVu changes are in public domain ) def
/Weight (Book) def
/Version (Version 2.35) def
/ItalicAngle 0.0 def
/isFixedPitch false def
/UnderlinePosition -130 def
/UnderlineThickness 90 def
end readonly def
/CharStrings 30 dict dup begin
/.notdef 0 def
/space{318 0 0 0 0 0 _sc
}_d
/zero{636 0 66 -13 570 742 _sc
318 664 _m
267 664 229 639 203 589 _c
177 539 165 464 165 364 _c
165 264 177 189 203 139 _c
229 89 267 64 318 64 _c
369 64 407 89 433 139 _c
458 189 471 264 471 364 _c
471 464 458 539 433 589 _c
407 639 369 664 318 664 _c
318 742 _m
399 742 461 709 505 645 _c
548 580 570 486 570 364 _c
570 241 548 147 505 83 _c
461 19 399 -13 318 -13 _c
236 -13 173 19 130 83 _c
87 147 66 241 66 364 _c
66 486 87 580 130 645 _c
173 709 236 742 318 742 _c
_cl}_d
/one{636 0 110 0 544 729 _sc
124 83 _m
285 83 _l
285 639 _l
110 604 _l
110 694 _l
284 729 _l
383 729 _l
383 83 _l
544 83 _l
544 0 _l
124 0 _l
124 83 _l
_cl}_d
/two{{636 0 73 0 536 742 _sc
192 83 _m
536 83 _l
536 0 _l
73 0 _l
73 83 _l
110 121 161 173 226 239 _c
290 304 331 346 348 365 _c
380 400 402 430 414 455 _c
426 479 433 504 433 528 _c
433 566 419 598 392 622 _c
365 646 330 659 286 659 _c
255 659 222 653 188 643 _c
154 632 117 616 78 594 _c
78 694 _l
118 710 155 722 189 730 _c
223 738 255 742 284 742 _c
}_e{359 742 419 723 464 685 _c
509 647 532 597 532 534 _c
532 504 526 475 515 449 _c
504 422 484 390 454 354 _c
446 344 420 317 376 272 _c
332 227 271 164 192 83 _c
_cl}_e}_d
/three{{636 0 76 -13 556 742 _sc
406 393 _m
453 383 490 362 516 330 _c
542 298 556 258 556 212 _c
556 140 531 84 482 45 _c
432 6 362 -13 271 -13 _c
240 -13 208 -10 176 -4 _c
144 1 110 10 76 22 _c
76 117 _l
103 101 133 89 166 81 _c
198 73 232 69 268 69 _c
330 69 377 81 409 105 _c
441 129 458 165 458 212 _c
458 254 443 288 413 312 _c
383 336 341 349 287 349 _c
}_e{202 349 _l
202 430 _l
291 430 _l
339 430 376 439 402 459 _c
428 478 441 506 441 543 _c
441 580 427 609 401 629 _c
374 649 336 659 287 659 _c
260 659 231 656 200 650 _c
169 644 135 635 98 623 _c
98 711 _l
135 721 170 729 203 734 _c
235 739 266 742 296 742 _c
370 742 429 725 473 691 _c
517 657 539 611 539 553 _c
539 513 527 479 504 451 _c
481 423 448 403 406 393 _c
_cl}_e}_d
/four{636 0 49 0 580 729 _sc
378 643 _m
129 254 _l
378 254 _l
378 643 _l
352 729 _m
476 729 _l
476 254 _l
580 254 _l
580 172 _l
476 172 _l
476 0 _l
378 0 _l
378 172 _l
49 172 _l
49 267 _l
352 729 _l
_cl}_d
/five{{636 0 77 -13 549 729 _sc
108 729 _m
495 729 _l
495 646 _l
198 646 _l
198 467 _l
212 472 227 476 241 478 _c
255 480 270 482 284 482 _c
365 482 429 459 477 415 _c
525 370 549 310 549 234 _c
549 155 524 94 475 51 _c
426 8 357 -13 269 -13 _c
238 -13 207 -10 175 -6 _c
143 -1 111 6 77 17 _c
77 116 _l
106 100 136 88 168 80 _c
199 72 232 69 267 69 _c
}_e{323 69 368 83 401 113 _c
433 143 450 183 450 234 _c
450 284 433 324 401 354 _c
368 384 323 399 267 399 _c
241 399 214 396 188 390 _c
162 384 135 375 108 363 _c
108 729 _l
_cl}_e}_d
/D{770 0 98 0 711 729 _sc
197 648 _m
197 81 _l
316 81 _l
416 81 490 103 537 149 _c
583 195 607 267 607 365 _c
607 463 583 534 537 580 _c
490 625 416 648 316 648 _c
197 648 _l
98 729 _m
301 729 _l
442 729 546 699 612 641 _c
678 582 711 490 711 365 _c
711 239 677 147 611 88 _c
545 29 441 0 301 0 _c
98 0 _l
98 729 _l
_cl}_d
/E{632 0 98 0 568 729 _sc
98 729 _m
559 729 _l
559 646 _l
197 646 _l
197 430 _l
544 430 _l
544 347 _l
197 347 _l
197 83 _l
568 83 _l
568 0 _l
98 0 _l
98 729 _l
_cl}_d
/M{863 0 98 0 765 729 _sc
98 729 _m
245 729 _l
431 233 _l
618 729 _l
765 729 _l
765 0 _l
669 0 _l
669 640 _l
481 140 _l
382 140 _l
194 640 _l
194 0 _l
98 0 _l
98 729 _l
_cl}_d
/R{{695 0 98 0 666 729 _sc
444 342 _m
465 334 486 319 506 296 _c
526 272 546 240 566 199 _c
666 0 _l
560 0 _l
467 187 _l
443 235 419 268 397 284 _c
374 300 343 308 304 308 _c
197 308 _l
197 0 _l
98 0 _l
98 729 _l
321 729 _l
404 729 466 711 507 677 _c
548 642 569 589 569 519 _c
569 473 558 434 537 404 _c
515 374 484 353 444 342 _c
197 648 _m
197 389 _l
321 389 _l
}_e{368 389 404 400 428 422 _c
452 444 465 476 465 519 _c
465 561 452 593 428 615 _c
404 637 368 648 321 648 _c
197 648 _l
_cl}_e}_d
/U{732 0 87 -13 645 729 _sc
87 729 _m
186 729 _l
186 286 _l
186 208 200 151 228 117 _c
256 83 302 66 366 66 _c
429 66 475 83 503 117 _c
531 151 546 208 546 286 _c
546 729 _l
645 729 _l
645 274 _l
645 178 621 107 574 59 _c
527 11 458 -13 366 -13 _c
274 -13 204 11 157 59 _c
110 107 87 178 87 274 _c
87 729 _l
_cl}_d
/a{{613 0 60 -13 522 560 _sc
343 275 _m
270 275 220 266 192 250 _c
164 233 150 205 150 165 _c
150 133 160 107 181 89 _c
202 70 231 61 267 61 _c
317 61 357 78 387 114 _c
417 149 432 196 432 255 _c
432 275 _l
343 275 _l
522 312 _m
522 0 _l
432 0 _l
432 83 _l
411 49 385 25 355 10 _c
325 -5 287 -13 243 -13 _c
187 -13 142 2 109 33 _c
76 64 60 106 60 159 _c
}_e{60 220 80 266 122 298 _c
163 329 224 345 306 345 _c
432 345 _l
432 354 _l
432 395 418 427 391 450 _c
364 472 326 484 277 484 _c
245 484 215 480 185 472 _c
155 464 127 453 100 439 _c
100 522 _l
132 534 164 544 195 550 _c
226 556 256 560 286 560 _c
365 560 424 539 463 498 _c
502 457 522 395 522 312 _c
_cl}_e}_d
/d{{635 0 55 -13 544 760 _sc
454 464 _m
454 760 _l
544 760 _l
544 0 _l
454 0 _l
454 82 _l
435 49 411 25 382 10 _c
353 -5 319 -13 279 -13 _c
213 -13 159 13 117 65 _c
75 117 55 187 55 273 _c
55 359 75 428 117 481 _c
159 533 213 560 279 560 _c
319 560 353 552 382 536 _c
411 520 435 496 454 464 _c
148 273 _m
148 207 161 155 188 117 _c
215 79 253 61 301 61 _c
}_e{348 61 385 79 413 117 _c
440 155 454 207 454 273 _c
454 339 440 390 413 428 _c
385 466 348 485 301 485 _c
253 485 215 466 188 428 _c
161 390 148 339 148 273 _c
_cl}_e}_d
/e{{615 0 55 -13 562 560 _sc
562 296 _m
562 252 _l
149 252 _l
153 190 171 142 205 110 _c
238 78 284 62 344 62 _c
378 62 412 66 444 74 _c
476 82 509 95 541 113 _c
541 28 _l
509 14 476 3 442 -3 _c
408 -9 373 -13 339 -13 _c
251 -13 182 12 131 62 _c
80 112 55 181 55 268 _c
55 357 79 428 127 481 _c
175 533 241 560 323 560 _c
397 560 455 536 498 489 _c
}_e{540 441 562 377 562 296 _c
472 322 _m
471 371 457 410 431 440 _c
404 469 368 484 324 484 _c
274 484 234 469 204 441 _c
174 413 156 373 152 322 _c
472 322 _l
_cl}_e}_d
/g{{635 0 55 -207 544 560 _sc
454 280 _m
454 344 440 395 414 431 _c
387 467 349 485 301 485 _c
253 485 215 467 188 431 _c
161 395 148 344 148 280 _c
148 215 161 165 188 129 _c
215 93 253 75 301 75 _c
349 75 387 93 414 129 _c
440 165 454 215 454 280 _c
544 68 _m
544 -24 523 -93 482 -139 _c
440 -184 377 -207 292 -207 _c
260 -207 231 -204 203 -200 _c
175 -195 147 -188 121 -178 _c
}_e{121 -91 _l
147 -105 173 -115 199 -122 _c
225 -129 251 -133 278 -133 _c
336 -133 380 -117 410 -87 _c
439 -56 454 -10 454 52 _c
454 96 _l
435 64 411 40 382 24 _c
353 8 319 0 279 0 _c
211 0 157 25 116 76 _c
75 127 55 195 55 280 _c
55 364 75 432 116 483 _c
157 534 211 560 279 560 _c
319 560 353 552 382 536 _c
411 520 435 496 454 464 _c
454 547 _l
544 547 _l
}_e{544 68 _l
_cl}_e}_d
/i{278 0 94 0 184 760 _sc
94 547 _m
184 547 _l
184 0 _l
94 0 _l
94 547 _l
94 760 _m
184 760 _l
184 646 _l
94 646 _l
94 760 _l
_cl}_d
/l{278 0 94 0 184 760 _sc
94 760 _m
184 760 _l
184 0 _l
94 0 _l
94 760 _l
_cl}_d
/m{{974 0 91 0 889 560 _sc
520 442 _m
542 482 569 511 600 531 _c
631 550 668 560 711 560 _c
767 560 811 540 842 500 _c
873 460 889 403 889 330 _c
889 0 _l
799 0 _l
799 327 _l
799 379 789 418 771 444 _c
752 469 724 482 686 482 _c
639 482 602 466 575 435 _c
548 404 535 362 535 309 _c
535 0 _l
445 0 _l
445 327 _l
445 379 435 418 417 444 _c
398 469 369 482 331 482 _c
}_e{285 482 248 466 221 435 _c
194 404 181 362 181 309 _c
181 0 _l
91 0 _l
91 547 _l
181 547 _l
181 462 _l
201 495 226 520 255 536 _c
283 552 317 560 357 560 _c
397 560 430 550 458 530 _c
486 510 506 480 520 442 _c
_cl}_e}_d
/n{634 0 91 0 549 560 _sc
549 330 _m
549 0 _l
459 0 _l
459 327 _l
459 379 448 417 428 443 _c
408 469 378 482 338 482 _c
289 482 251 466 223 435 _c
195 404 181 362 181 309 _c
181 0 _l
91 0 _l
91 547 _l
181 547 _l
181 462 _l
202 494 227 519 257 535 _c
286 551 320 560 358 560 _c
420 560 468 540 500 501 _c
532 462 549 405 549 330 _c
_cl}_d
/o{612 0 55 -13 557 560 _sc
306 484 _m
258 484 220 465 192 427 _c
164 389 150 338 150 273 _c
150 207 163 156 191 118 _c
219 80 257 62 306 62 _c
354 62 392 80 420 118 _c
448 156 462 207 462 273 _c
462 337 448 389 420 427 _c
392 465 354 484 306 484 _c
306 560 _m
384 560 445 534 490 484 _c
534 433 557 363 557 273 _c
557 183 534 113 490 63 _c
445 12 384 -13 306 -13 _c
227 -13 165 12 121 63 _c
77 113 55 183 55 273 _c
55 363 77 433 121 484 _c
165 534 227 560 306 560 _c
_cl}_d
/r{411 0 91 0 411 560 _sc
411 463 _m
401 469 390 473 378 476 _c
366 478 353 480 339 480 _c
288 480 249 463 222 430 _c
194 397 181 350 181 288 _c
181 0 _l
91 0 _l
91 547 _l
181 547 _l
181 462 _l
199 495 224 520 254 536 _c
284 552 321 560 365 560 _c
371 560 378 559 386 559 _c
393 558 401 557 411 555 _c
411 463 _l
_cl}_d
/s{{521 0 54 -13 472 560 _sc
443 531 _m
443 446 _l
417 458 391 468 364 475 _c
336 481 308 485 279 485 _c
234 485 200 478 178 464 _c
156 450 145 430 145 403 _c
145 382 153 366 169 354 _c
185 342 217 330 265 320 _c
296 313 _l
360 299 405 279 432 255 _c
458 230 472 195 472 151 _c
472 100 452 60 412 31 _c
372 1 316 -13 246 -13 _c
216 -13 186 -10 154 -5 _c
}_e{122 0 89 8 54 20 _c
54 113 _l
87 95 120 82 152 74 _c
184 65 216 61 248 61 _c
290 61 323 68 346 82 _c
368 96 380 117 380 144 _c
380 168 371 187 355 200 _c
339 213 303 226 247 238 _c
216 245 _l
160 257 119 275 95 299 _c
70 323 58 356 58 399 _c
58 450 76 490 112 518 _c
148 546 200 560 268 560 _c
301 560 332 557 362 552 _c
391 547 418 540 443 531 _c
}_e{_cl}_e}_d
/t{392 0 27 0 368 702 _sc
183 702 _m
183 547 _l
368 547 _l
368 477 _l
183 477 _l
183 180 _l
183 135 189 106 201 94 _c
213 81 238 75 276 75 _c
368 75 _l
368 0 _l
276 0 _l
206 0 158 13 132 39 _c
106 65 93 112 93 180 _c
93 477 _l
27 477 _l
27 547 _l
93 547 _l
93 702 _l
183 702 _l
_cl}_d
/u{634 0 85 -13 543 560 _sc
85 216 _m
85 547 _l
175 547 _l
175 219 _l
175 167 185 129 205 103 _c
225 77 255 64 296 64 _c
344 64 383 79 411 110 _c
439 141 453 183 453 237 _c
453 547 _l
543 547 _l
543 0 _l
453 0 _l
453 84 _l
431 50 405 26 377 10 _c
348 -5 315 -13 277 -13 _c
214 -13 166 6 134 45 _c
101 83 85 140 85 216 _c
311 560 _m
311 560 _l
_cl}_d
/v{592 0 30 0 562 547 _sc
30 547 _m
125 547 _l
296 88 _l
467 547 _l
562 547 _l
357 0 _l
235 0 _l
30 547 _l
_cl}_d
/acute{500 0 181 616 415 800 _sc
318 800 _m
415 800 _l
256 616 _l
181 616 _l
318 800 _l
_cl}_d
/iacute{278 0 70 0 304 800 _sc
gsave -110 0 translate
false CharStrings /acute get exec
grestore false CharStrings /dotlessi get exec
}_d
/dotlessi{278 0 94 0 184 560 _sc
94 547 _m
184 547 _l
184 0 _l
94 0 _l
94 547 _l
139 560 _m
139 560 _l
_cl}_d
end readonly def

/BuildGlyph
 {exch begin
 CharStrings exch
 2 copy known not{pop /.notdef}if
 true 3 1 roll get exec
 end}_d

/BuildChar {
 1 index /Encoding get exch get
 1 index /BuildGlyph get exec
}_d

FontName currentdict end definefont pop
end
%%EndProlog
mpldict begin
90 252 translate
432 288 0 0 clipbox
gsave
0 0 m
432 0 l
432 288 l
0 288 l
cl
grestore
gsave
54 36 m
388.8 36 l
388.8 253.44 l
54 253.44 l
cl
1.000 setgray
fill
grestore
1.000 setlinewidth
1 setlinejoin
0 setlinecap
[] 0 setdash
0.267 0.005 0.329 setrgbcolor
gsave
334.8 217.4 54 36 clipbox
363.436364 57.670484 m
365.823192 57.670484 368.112582 58.618781 369.800325 60.306523 c
371.488067 61.994265 372.436364 64.283656 372.436364 66.670484 c
372.436364 69.057312 371.488067 71.346703 369.800325 73.034445 c
368.112582 74.722187 365.823192 75.670484 363.436364 75.670484 c
361.049536 75.670484 358.760145 74.722187 357.072403 73.034445 c
355.38466 71.346703 354.436364 69.057312 354.436364 66.670484 c
354.436364 64.283656 355.38466 61.994265 357.072403 60.306523 c
358.760145 58.618781 361.049536 57.670484 363.436364 57.670484 c
cl
gsave
fill
grestore
stroke
grestore
gsave
334.8 217.4 54 36 clipbox
322.854545 161.51275 m
324.531837 161.51275 326.140657 162.179145 327.326681 163.365169 c
328.512706 164.551194 329.179101 166.160014 329.179101 167.837305 c
329.179101 169.514597 328.512706 171.123417 327.326681 172.309441 c
326.140657 173.495466 324.531837 174.161861 322.854545 174.161861 c
321.177254 174.161861 319.568434 173.495466 318.382409 172.309441 c
317.196385 171.123417 316.52999 169.514597 316.52999 167.837305 c
316.52999 166.160014 317.196385 164.551194 318.382409 163.365169 c
319.568434 162.179145 321.177254 161.51275 322.854545 161.51275 c
cl
gsave
fill
grestore
stroke
grestore
gsave
334.8 217.4 54 36 clipbox
69.218182 54.704132 m
73.362908 54.704132 77.338436 56.350849 80.2692 59.281614 c
83.199964 62.212378 84.846681 66.187905 84.846681 70.332632 c
84.846681 74.477358 83.199964 78.452885 80.2692 81.38365 c
77.338436 84.314414 73.362908 85.961131 69.218182 85.961131 c
65.073455 85.961131 61.097928 84.314414 58.167164 81.38365 c
55.2364 78.452885 53.589682 74.477358 53.589682 70.332632 c
53.589682 66.187905 55.2364 62.212378 58.167164 59.281614 c
61.097928 56.350849 65.073455 54.704132 69.218182 54.704132 c
cl
gsave
fill
grestore
stroke
grestore
gsave
334.8 217.4 54 36 clipbox
89.509091 79.497925 m
91.448884 79.497925 93.30949 80.268613 94.681131 81.640255 c
96.052772 83.011896 96.82346 84.872501 96.82346 86.812295 c
96.82346 88.752088 96.052772 90.612694 94.681131 91.984335 c
93.30949 93.355976 91.448884 94.126664 89.509091 94.126664 c
87.569297 94.126664 85.708692 93.355976 84.337051 91.984335 c
82.96541 90.612694 82.194721 88.752088 82.194721 86.812295 c
82.194721 84.872501 82.96541 83.011896 84.337051 81.640255 c
85.708692 80.268613 87.569297 79.497925 89.509091 79.497925 c
cl
gsave
fill
grestore
stroke
grestore
gsave
334.8 217.4 54 36 clipbox
343.145455 62.337992 m
345.872666 62.337992 348.488545 63.421524 350.416974 65.349954 c
352.345404 67.278383 353.428936 69.894262 353.428936 72.621474 c
353.428936 75.348685 352.345404 77.964564 350.416974 79.892993 c
348.488545 81.821423 345.872666 82.904956 343.145455 82.904956 c
340.418243 82.904956 337.802364 81.821423 335.873935 79.892993 c
333.945505 77.964564 332.861973 75.348685 332.861973 72.621474 c
332.861973 69.894262 333.945505 67.278383 335.873935 65.349954 c
337.802364 63.421524 340.418243 62.337992 343.145455 62.337992 c
cl
gsave
fill
grestore
stroke
grestore
gsave
334.8 217.4 54 36 clipbox
130.090909 55.169871 m
132.655301 55.169871 135.115007 56.188714 136.928306 58.002013 c
138.741605 59.815312 139.760449 62.275019 139.760449 64.839411 c
139.760449 67.403802 138.741605 69.863509 136.928306 71.676808 c
135.115007 73.490107 132.655301 74.50895 130.090909 74.50895 c
127.526517 74.50895 125.066811 73.490107 123.253512 71.676808 c
121.440213 69.863509 120.421369 67.403802 120.421369 64.839411 c
120.421369 62.275019 121.440213 59.815312 123.253512 58.002013 c
125.066811 56.188714 127.526517 55.169871 130.090909 55.169871 c
cl
gsave
fill
grestore
stroke
grestore
gsave
334.8 217.4 54 36 clipbox
150.381818 77.896276 m
153.23198 77.896276 155.965791 79.028657 157.98116 81.044026 c
159.996529 83.059395 161.128911 85.793206 161.128911 88.643368 c
161.128911 91.493531 159.996529 94.227341 157.98116 96.24271 c
155.965791 98.25808 153.23198 99.390461 150.381818 99.390461 c
147.531656 99.390461 144.797845 98.25808 142.782476 96.24271 c
140.767107 94.227341 139.634726 91.493531 139.634726 88.643368 c
139.634726 85.793206 140.767107 83.059395 142.782476 81.044026 c
144.797845 79.028657 147.531656 77.896276 150.381818 77.896276 c
cl
gsave
fill
grestore
stroke
grestore
gsave
334.8 217.4 54 36 clipbox
69.218182 59.504716 m
72.575385 59.504716 75.795538 60.838547 78.169439 63.212448 c
80.54334 65.586349 81.877171 68.806502 81.877171 72.163705 c
81.877171 75.520908 80.54334 78.741061 78.169439 81.114962 c
75.795538 83.488863 72.575385 84.822694 69.218182 84.822694 c
65.860979 84.822694 62.640826 83.488863 60.266925 81.114962 c
57.893024 78.741061 56.559193 75.520908 56.559193 72.163705 c
56.559193 68.806502 57.893024 65.586349 60.266925 63.212448 c
62.640826 60.838547 65.860979 59.504716 69.218182 59.504716 c
cl
gsave
fill
grestore
stroke
grestore
gsave
334.8 217.4 54 36 clipbox
89.509091 80.08574 m
93.356821 80.08574 97.047477 81.614459 99.768233 84.335216 c
102.48899 87.055972 104.017709 90.746627 104.017709 94.594358 c
104.017709 98.442088 102.48899 102.132744 99.768233 104.8535 c
97.047477 107.574256 93.356821 109.102976 89.509091 109.102976 c
85.66136 109.102976 81.970705 107.574256 79.249949 104.8535 c
76.529192 102.132744 75.000473 98.442088 75.000473 94.594358 c
75.000473 90.746627 76.529192 87.055972 79.249949 84.335216 c
81.970705 81.614459 85.66136 80.08574 89.509091 80.08574 c
cl
gsave
fill
grestore
stroke
grestore
gsave
334.8 217.4 54 36 clipbox
140.236364 72.291339 m
142.630547 72.291339 144.926993 73.242558 146.619936 74.935501 c
148.31288 76.628444 149.264099 78.92489 149.264099 81.319074 c
149.264099 83.713257 148.31288 86.009703 146.619936 87.702646 c
144.926993 89.39559 142.630547 90.346809 140.236364 90.346809 c
137.84218 90.346809 135.545734 89.39559 133.852791 87.702646 c
132.159848 86.009703 131.208629 83.713257 131.208629 81.319074 c
131.208629 78.92489 132.159848 76.628444 133.852791 74.935501 c
135.545734 73.242558 137.84218 72.291339 140.236364 72.291339 c
cl
gsave
fill
grestore
stroke
grestore
0.993 0.906 0.144 setrgbcolor
gsave
334.8 217.4 54 36 clipbox
119.945455 54.111962 m
122.426202 54.111962 124.805679 55.097573 126.559833 56.851727 c
128.313986 58.605881 129.299598 60.985357 129.299598 63.466105 c
129.299598 65.946853 128.313986 68.32633 126.559833 70.080484 c
124.805679 71.834637 122.426202 72.820249 119.945455 72.820249 c
117.464707 72.820249 115.08523 71.834637 113.331076 70.080484 c
111.576923 68.32633 110.591311 65.946853 110.591311 63.466105 c
110.591311 60.985357 111.576923 58.605881 113.331076 56.851727 c
115.08523 55.097573 117.464707 54.111962 119.945455 54.111962 c
cl
gsave
fill
grestore
stroke
grestore
0.267 0.005 0.329 setrgbcolor
gsave
334.8 217.4 54 36 clipbox
373.581818 66.722735 m
375.631788 66.722735 377.598073 67.537197 379.047621 68.986745 c
380.497169 70.436292 381.311631 72.402577 381.311631 74.452547 c
381.311631 76.502518 380.497169 78.468802 379.047621 79.91835 c
377.598073 81.367898 375.631788 82.18236 373.581818 82.18236 c
371.531848 82.18236 369.565563 81.367898 368.116015 79.91835 c
366.666468 78.468802 365.852006 76.502518 365.852006 74.452547 c
365.852006 72.402577 366.666468 70.436292 368.116015 68.986745 c
369.565563 67.537197 371.531848 66.722735 373.581818 66.722735 c
cl
gsave
fill
grestore
stroke
grestore
gsave
334.8 217.4 54 36 clipbox
241.690909 39.913459 m
248.058545 39.913459 254.166237 42.443348 258.668836 46.945947 c
263.171435 51.448546 265.701323 57.556237 265.701323 63.923874 c
265.701323 70.29151 263.171435 76.399202 258.668836 80.901801 c
254.166237 85.404399 248.058545 87.934288 241.690909 87.934288 c
235.323273 87.934288 229.215581 85.404399 224.712982 80.901801 c
220.210383 76.399202 217.680495 70.29151 217.680495 63.923874 c
217.680495 57.556237 220.210383 51.448546 224.712982 46.945947 c
229.215581 42.443348 235.323273 39.913459 241.690909 39.913459 c
cl
gsave
fill
grestore
stroke
grestore
gsave
334.8 217.4 54 36 clipbox
130.090909 76.562103 m
133.901906 76.562103 137.557328 78.076228 140.25211 80.77101 c
142.946892 83.465792 144.461017 87.121213 144.461017 90.932211 c
144.461017 94.743208 142.946892 98.398629 140.25211 101.093411 c
137.557328 103.788193 133.901906 105.302318 130.090909 105.302318 c
126.279912 105.302318 122.62449 103.788193 119.929708 101.093411 c
117.234926 98.398629 115.720801 94.743208 115.720801 90.932211 c
115.720801 87.121213 117.234926 83.465792 119.929708 80.77101 c
122.62449 78.076228 126.279912 76.562103 130.090909 76.562103 c
cl
gsave
fill
grestore
stroke
grestore
gsave
334.8 217.4 54 36 clipbox
170.672727 56.098199 m
172.505317 56.098199 174.263096 56.826295 175.558932 58.122132 c
176.854769 59.417969 177.582865 61.175747 177.582865 63.008337 c
177.582865 64.840927 176.854769 66.598705 175.558932 67.894542 c
174.263096 69.190379 172.505317 69.918474 170.672727 69.918474 c
168.840137 69.918474 167.082359 69.190379 165.786522 67.894542 c
164.490685 66.598705 163.76259 64.840927 163.76259 63.008337 c
163.76259 61.175747 164.490685 59.417969 165.786522 58.122132 c
167.082359 56.826295 168.840137 56.098199 170.672727 56.098199 c
cl
gsave
fill
grestore
stroke
grestore
gsave
334.8 217.4 54 36 clipbox
119.945455 57.498901 m
122.62059 57.498901 125.186519 58.561743 127.078126 60.45335 c
128.969732 62.344956 130.032575 64.910885 130.032575 67.586021 c
130.032575 70.261157 128.969732 72.827086 127.078126 74.718692 c
125.186519 76.610299 122.62059 77.673142 119.945455 77.673142 c
117.270319 77.673142 114.70439 76.610299 112.812783 74.718692 c
110.921177 72.827086 109.858334 70.261157 109.858334 67.586021 c
109.858334 64.910885 110.921177 62.344956 112.812783 60.45335 c
114.70439 58.561743 117.270319 57.498901 119.945455 57.498901 c
cl
gsave
fill
grestore
stroke
grestore
gsave
334.8 217.4 54 36 clipbox
170.672727 56.404447 m
173.516714 56.404447 176.244601 57.534375 178.255603 59.545377 c
180.266605 61.556379 181.396533 64.284266 181.396533 67.128253 c
181.396533 69.972239 180.266605 72.700126 178.255603 74.711128 c
176.244601 76.72213 173.516714 77.852058 170.672727 77.852058 c
167.828741 77.852058 165.100854 76.72213 163.089852 74.711128 c
161.07885 72.700126 159.948922 69.972239 159.948922 67.128253 c
159.948922 64.284266 161.07885 61.556379 163.089852 59.545377 c
165.100854 57.534375 167.828741 56.404447 170.672727 56.404447 c
cl
gsave
fill
grestore
stroke
grestore
gsave
334.8 217.4 54 36 clipbox
89.509091 58.574428 m
91.170584 58.574428 92.764249 59.234547 93.939102 60.409399 c
95.113955 61.584252 95.774073 63.177918 95.774073 64.839411 c
95.774073 66.500903 95.113955 68.094569 93.939102 69.269422 c
92.764249 70.444275 91.170584 71.104393 89.509091 71.104393 c
87.847598 71.104393 86.253932 70.444275 85.07908 69.269422 c
83.904227 68.094569 83.244109 66.500903 83.244109 64.839411 c
83.244109 63.177918 83.904227 61.584252 85.07908 60.409399 c
86.253932 59.234547 87.847598 58.574428 89.509091 58.574428 c
cl
gsave
fill
grestore
stroke
grestore
gsave
334.8 217.4 54 36 clipbox
89.509091 44.380678 m
95.056212 44.380678 100.376884 46.584573 104.29929 50.506979 c
108.221697 54.429386 110.425592 59.750058 110.425592 65.297179 c
110.425592 70.8443 108.221697 76.164972 104.29929 80.087378 c
100.376884 84.009785 95.056212 86.21368 89.509091 86.21368 c
83.96197 86.21368 78.641298 84.009785 74.718891 80.087378 c
70.796485 76.164972 68.59259 70.8443 68.59259 65.297179 c
68.59259 59.750058 70.796485 54.429386 74.718891 50.506979 c
78.641298 46.584573 83.96197 44.380678 89.509091 44.380678 c
cl
gsave
fill
grestore
stroke
grestore
gsave
334.8 217.4 54 36 clipbox
140.236364 58.681639 m
143.08344 58.681639 145.81429 59.812795 147.827477 61.825982 c
149.840664 63.839168 150.971819 66.570019 150.971819 69.417095 c
150.971819 72.264171 149.840664 74.995021 147.827477 77.008208 c
145.81429 79.021395 143.08344 80.15255 140.236364 80.15255 c
137.389288 80.15255 134.658437 79.021395 132.64525 77.008208 c
130.632064 74.995021 129.500908 72.264171 129.500908 69.417095 c
129.500908 66.570019 130.632064 63.839168 132.64525 61.825982 c
134.658437 59.812795 137.389288 58.681639 140.236364 58.681639 c
cl
gsave
fill
grestore
stroke
grestore
0.993 0.906 0.144 setrgbcolor
gsave
334.8 217.4 54 36 clipbox
333 118.522171 m
334.666776 118.522171 336.265509 119.184388 337.444097 120.362976 c
338.622686 121.541565 339.284903 123.140298 339.284903 124.807074 c
339.284903 126.473849 338.622686 128.072583 337.444097 129.251171 c
336.265509 130.429759 334.666776 131.091976 333 131.091976 c
331.333224 131.091976 329.734491 130.429759 328.555903 129.251171 c
327.377314 128.072583 326.715097 126.473849 326.715097 124.807074 c
326.715097 123.140298 327.377314 121.541565 328.555903 120.362976 c
329.734491 119.184388 331.333224 118.522171 333 118.522171 c
cl
gsave
fill
grestore
stroke
grestore
gsave
334.8 217.4 54 36 clipbox
322.854545 52.144233 m
326.342748 52.144233 329.688552 53.53011 332.155083 55.996641 c
334.621614 58.463173 336.007492 61.808977 336.007492 65.297179 c
336.007492 68.785381 334.621614 72.131185 332.155083 74.597717 c
329.688552 77.064248 326.342748 78.450125 322.854545 78.450125 c
319.366343 78.450125 316.020539 77.064248 313.554008 74.597717 c
311.087476 72.131185 309.701599 68.785381 309.701599 65.297179 c
309.701599 61.808977 311.087476 58.463173 313.554008 55.996641 c
316.020539 53.53011 319.366343 52.144233 322.854545 52.144233 c
cl
gsave
fill
grestore
stroke
grestore
gsave
334.8 217.4 54 36 clipbox
302.563636 52.019706 m
305.477855 52.019706 308.273108 53.177538 310.333771 55.238202 c
312.394435 57.298866 313.552267 60.094118 313.552267 63.008337 c
313.552267 65.922556 312.394435 68.717808 310.333771 70.778472 c
308.273108 72.839136 305.477855 73.996967 302.563636 73.996967 c
299.649417 73.996967 296.854165 72.839136 294.793501 70.778472 c
292.732837 68.717808 291.575006 65.922556 291.575006 63.008337 c
291.575006 60.094118 292.732837 57.298866 294.793501 55.238202 c
296.854165 53.177538 299.649417 52.019706 302.563636 52.019706 c
cl
gsave
fill
grestore
stroke
grestore
0.267 0.005 0.329 setrgbcolor
gsave
334.8 217.4 54 36 clipbox
109.8 63.985247 m
113.061567 63.985247 116.189988 65.281081 118.496264 67.587357 c
120.80254 69.893634 122.098374 73.022054 122.098374 76.283621 c
122.098374 79.545188 120.80254 82.673609 118.496264 84.979885 c
116.189988 87.286161 113.061567 88.581995 109.8 88.581995 c
106.538433 88.581995 103.410012 87.286161 101.103736 84.979885 c
98.79746 82.673609 97.501626 79.545188 97.501626 76.283621 c
97.501626 73.022054 98.79746 69.893634 101.103736 67.587357 c
103.410012 65.281081 106.538433 63.985247 109.8 63.985247 c
cl
gsave
fill
grestore
stroke
grestore
gsave
334.8 217.4 54 36 clipbox
160.527273 48.840771 m
164.527358 48.840771 168.36415 50.430021 171.192637 53.258509 c
174.021125 56.086997 175.610376 59.923788 175.610376 63.923874 c
175.610376 67.923959 174.021125 71.76075 171.192637 74.589238 c
168.36415 77.417726 164.527358 79.006977 160.527273 79.006977 c
156.527187 79.006977 152.690396 77.417726 149.861908 74.589238 c
147.03342 71.76075 145.44417 67.923959 145.44417 63.923874 c
145.44417 59.923788 147.03342 56.086997 149.861908 53.258509 c
152.690396 50.430021 156.527187 48.840771 160.527273 48.840771 c
cl
gsave
fill
grestore
stroke
grestore
gsave
334.8 217.4 54 36 clipbox
353.290909 96.681499 m
356.743646 96.681499 360.055432 98.053286 362.496885 100.494739 c
364.938339 102.936193 366.310126 106.247979 366.310126 109.700716 c
366.310126 113.153452 364.938339 116.465239 362.496885 118.906692 c
360.055432 121.348146 356.743646 122.719932 353.290909 122.719932 c
349.838172 122.719932 346.526386 121.348146 344.084933 118.906692 c
341.643479 116.465239 340.271693 113.153452 340.271693 109.700716 c
340.271693 106.247979 341.643479 102.936193 344.084933 100.494739 c
346.526386 98.053286 349.838172 96.681499 353.290909 96.681499 c
cl
gsave
fill
grestore
stroke
grestore
gsave
334.8 217.4 54 36 clipbox
99.654545 92.636516 m
101.873394 92.636516 104.001663 93.518073 105.570625 95.087036 c
107.139588 96.655999 108.021146 98.784267 108.021146 101.003116 c
108.021146 103.221964 107.139588 105.350233 105.570625 106.919196 c
104.001663 108.488158 101.873394 109.369716 99.654545 109.369716 c
97.435697 109.369716 95.307428 108.488158 93.738466 106.919196 c
92.169503 105.350233 91.287945 103.221964 91.287945 101.003116 c
91.287945 98.784267 92.169503 96.655999 93.738466 95.087036 c
95.307428 93.518073 97.435697 92.636516 99.654545 92.636516 c
cl
gsave
fill
grestore
stroke
grestore
0.993 0.906 0.144 setrgbcolor
gsave
334.8 217.4 54 36 clipbox
322.854545 53.025556 m
328.051444 53.025556 333.03619 55.090305 336.710952 58.765067 c
340.385714 62.439829 342.450463 67.424575 342.450463 72.621474 c
342.450463 77.818372 340.385714 82.803118 336.710952 86.47788 c
333.03619 90.152642 328.051444 92.217392 322.854545 92.217392 c
317.657647 92.217392 312.672901 90.152642 308.998139 86.47788 c
305.323377 82.803118 303.258628 77.818372 303.258628 72.621474 c
303.258628 67.424575 305.323377 62.439829 308.998139 58.765067 c
312.672901 55.090305 317.657647 53.025556 322.854545 53.025556 c
cl
gsave
fill
grestore
stroke
grestore
0.267 0.005 0.329 setrgbcolor
gsave
334.8 217.4 54 36 clipbox
99.654545 72.722145 m
102.541486 72.722145 105.310573 73.869139 107.351948 75.910514 c
109.393323 77.951889 110.540316 80.720976 110.540316 83.607916 c
110.540316 86.494856 109.393323 89.263943 107.351948 91.305318 c
105.310573 93.346693 102.541486 94.493686 99.654545 94.493686 c
96.767605 94.493686 93.998518 93.346693 91.957143 91.305318 c
89.915768 89.263943 88.768775 86.494856 88.768775 83.607916 c
88.768775 80.720976 89.915768 77.951889 91.957143 75.910514 c
93.998518 73.869139 96.767605 72.722145 99.654545 72.722145 c
cl
gsave
fill
grestore
stroke
grestore
gsave
334.8 217.4 54 36 clipbox
170.672727 65.412972 m
172.827247 65.412972 174.893814 66.268972 176.41729 67.792448 c
177.940766 69.315924 178.796766 71.38249 178.796766 73.537011 c
178.796766 75.691531 177.940766 77.758097 176.41729 79.281573 c
174.893814 80.805049 172.827247 81.661049 170.672727 81.661049 c
168.518207 81.661049 166.45164 80.805049 164.928165 79.281573 c
163.404689 77.758097 162.548689 75.691531 162.548689 73.537011 c
162.548689 71.38249 163.404689 69.315924 164.928165 67.792448 c
166.45164 66.268972 168.518207 65.412972 170.672727 65.412972 c
cl
gsave
fill
grestore
stroke
grestore
0.993 0.906 0.144 setrgbcolor
gsave
334.8 217.4 54 36 clipbox
261.981818 50.260585 m
264.148545 50.260585 266.226821 51.121435 267.758928 52.653543 c
269.291036 54.18565 270.151886 56.263925 270.151886 58.430653 c
270.151886 60.59738 269.291036 62.675655 267.758928 64.207763 c
266.226821 65.73987 264.148545 66.60072 261.981818 66.60072 c
259.815091 66.60072 257.736816 65.73987 256.204708 64.207763 c
254.672601 62.675655 253.811751 60.59738 253.811751 58.430653 c
253.811751 56.263925 254.672601 54.18565 256.204708 52.653543 c
257.736816 51.121435 259.815091 50.260585 261.981818 50.260585 c
cl
gsave
fill
grestore
stroke
grestore
0.267 0.005 0.329 setrgbcolor
gsave
334.8 217.4 54 36 clipbox
130.090909 53.64167 m
133.546191 53.64167 136.860419 55.014468 139.303672 57.457721 c
141.746925 59.900975 143.119723 63.215202 143.119723 66.670484 c
143.119723 70.125766 141.746925 73.439994 139.303672 75.883247 c
136.860419 78.3265 133.546191 79.699298 130.090909 79.699298 c
126.635627 79.699298 123.321399 78.3265 120.878146 75.883247 c
118.434893 73.439994 117.062095 70.125766 117.062095 66.670484 c
117.062095 63.215202 118.434893 59.900975 120.878146 57.457721 c
123.321399 55.014468 126.635627 53.64167 130.090909 53.64167 c
cl
gsave
fill
grestore
stroke
grestore
gsave
334.8 217.4 54 36 clipbox
302.563636 53.70272 m
305.881326 53.70272 309.063578 55.020852 311.409539 57.366813 c
313.7555 59.712774 315.073632 62.895026 315.073632 66.212716 c
315.073632 69.530406 313.7555 72.712658 311.409539 75.058619 c
309.063578 77.40458 305.881326 78.722712 302.563636 78.722712 c
299.245947 78.722712 296.063694 77.40458 293.717733 75.058619 c
291.371772 72.712658 290.05364 69.530406 290.05364 66.212716 c
290.05364 62.895026 291.371772 59.712774 293.717733 57.366813 c
296.063694 55.020852 299.245947 53.70272 302.563636 53.70272 c
cl
gsave
fill
grestore
stroke
grestore
0.993 0.906 0.144 setrgbcolor
gsave
334.8 217.4 54 36 clipbox
180.818182 65.35362 m
184.809466 65.35362 188.637816 66.939374 191.46008 69.761639 c
194.282345 72.583903 195.868099 76.412252 195.868099 80.403537 c
195.868099 84.394821 194.282345 88.223171 191.46008 91.045435 c
188.637816 93.8677 184.809466 95.453454 180.818182 95.453454 c
176.826897 95.453454 172.998548 93.8677 170.176283 91.045435 c
167.354019 88.223171 165.768265 84.394821 165.768265 80.403537 c
165.768265 76.412252 167.354019 72.583903 170.176283 69.761639 c
172.998548 66.939374 176.826897 65.35362 180.818182 65.35362 c
cl
gsave
fill
grestore
stroke
grestore
0.267 0.005 0.329 setrgbcolor
gsave
334.8 217.4 54 36 clipbox
261.981818 51.291928 m
266.060259 51.291928 269.972207 52.912309 272.8561 55.796203 c
275.739993 58.680096 277.360375 62.592043 277.360375 66.670484 c
277.360375 70.748925 275.739993 74.660873 272.8561 77.544766 c
269.972207 80.428659 266.060259 82.049041 261.981818 82.049041 c
257.903377 82.049041 253.99143 80.428659 251.107537 77.544766 c
248.223643 74.660873 246.603262 70.748925 246.603262 66.670484 c
246.603262 62.592043 248.223643 58.680096 251.107537 55.796203 c
253.99143 52.912309 257.903377 51.291928 261.981818 51.291928 c
cl
gsave
fill
grestore
stroke
grestore
0.993 0.906 0.144 setrgbcolor
gsave
334.8 217.4 54 36 clipbox
150.381818 60.55975 m
153.944829 60.55975 157.362389 61.975349 159.881818 64.494779 c
162.401248 67.014208 163.816847 70.431768 163.816847 73.994779 c
163.816847 77.55779 162.401248 80.975349 159.881818 83.494779 c
157.362389 86.014208 153.944829 87.429808 150.381818 87.429808 c
146.818807 87.429808 143.401248 86.014208 140.881818 83.494779 c
138.362389 80.975349 136.946789 77.55779 136.946789 73.994779 c
136.946789 70.431768 138.362389 67.014208 140.881818 64.494779 c
143.401248 61.975349 146.818807 60.55975 150.381818 60.55975 c
cl
gsave
fill
grestore
stroke
grestore
gsave
334.8 217.4 54 36 clipbox
333 93.255567 m
335.54028 93.255567 337.976859 94.264831 339.773109 96.061081 c
341.569358 97.85733 342.578622 100.293909 342.578622 102.834189 c
342.578622 105.37447 341.569358 107.811049 339.773109 109.607298 c
337.976859 111.403547 335.54028 112.412812 333 112.412812 c
330.45972 112.412812 328.023141 111.403547 326.226891 109.607298 c
324.430642 107.811049 323.421378 105.37447 323.421378 102.834189 c
323.421378 100.293909 324.430642 97.85733 326.226891 96.061081 c
328.023141 94.264831 330.45972 93.255567 333 93.255567 c
cl
gsave
fill
grestore
stroke
grestore
0.267 0.005 0.329 setrgbcolor
gsave
334.8 217.4 54 36 clipbox
160.527273 60.869389 m
162.551348 60.869389 164.492794 61.673563 165.924031 63.1048 c
167.355268 64.536037 168.159441 66.477483 168.159441 68.501558 c
168.159441 70.525633 167.355268 72.467079 165.924031 73.898316 c
164.492794 75.329553 162.551348 76.133727 160.527273 76.133727 c
158.503198 76.133727 156.561751 75.329553 155.130514 73.898316 c
153.699277 72.467079 152.895104 70.525633 152.895104 68.501558 c
152.895104 66.477483 153.699277 64.536037 155.130514 63.1048 c
156.561751 61.673563 158.503198 60.869389 160.527273 60.869389 c
cl
gsave
fill
grestore
stroke
grestore
gsave
334.8 217.4 54 36 clipbox
109.8 64.785079 m
112.606646 64.785079 115.298716 65.900171 117.283315 67.884769 c
119.267913 69.869368 120.383005 72.561438 120.383005 75.368084 c
120.383005 78.17473 119.267913 80.866801 117.283315 82.851399 c
115.298716 84.835997 112.606646 85.951089 109.8 85.951089 c
106.993354 85.951089 104.301284 84.835997 102.316685 82.851399 c
100.332087 80.866801 99.216995 78.17473 99.216995 75.368084 c
99.216995 72.561438 100.332087 69.869368 102.316685 67.884769 c
104.301284 65.900171 106.993354 64.785079 109.8 64.785079 c
cl
gsave
fill
grestore
stroke
grestore
gsave
334.8 217.4 54 36 clipbox
140.236364 84.202053 m
142.992435 84.202053 145.635996 85.297052 147.584833 87.245889 c
149.53367 89.194725 150.628668 91.838286 150.628668 94.594358 c
150.628668 97.350429 149.53367 99.99399 147.584833 101.942827 c
145.635996 103.891664 142.992435 104.986663 140.236364 104.986663 c
137.480292 104.986663 134.836731 103.891664 132.887894 101.942827 c
130.939058 99.99399 129.844059 97.350429 129.844059 94.594358 c
129.844059 91.838286 130.939058 89.194725 132.887894 87.245889 c
134.836731 85.297052 137.480292 84.202053 140.236364 84.202053 c
cl
gsave
fill
grestore
stroke
grestore
gsave
334.8 217.4 54 36 clipbox
109.8 52.343724 m
114.327911 52.343724 118.67098 54.142682 121.872696 57.344398 c
125.074413 60.546115 126.873371 64.889184 126.873371 69.417095 c
126.873371 73.945006 125.074413 78.288075 121.872696 81.489791 c
118.67098 84.691508 114.327911 86.490466 109.8 86.490466 c
105.272089 86.490466 100.92902 84.691508 97.727304 81.489791 c
94.525587 78.288075 92.726629 73.945006 92.726629 69.417095 c
92.726629 64.889184 94.525587 60.546115 97.727304 57.344398 c
100.92902 54.142682 105.272089 52.343724 109.8 52.343724 c
cl
gsave
fill
grestore
stroke
grestore
gsave
334.8 217.4 54 36 clipbox
373.581818 67.974668 m
377.242197 67.974668 380.75315 69.428952 383.341429 72.017231 c
385.929708 74.60551 387.383992 78.116463 387.383992 81.776842 c
387.383992 85.437221 385.929708 88.948174 383.341429 91.536453 c
380.75315 94.124732 377.242197 95.579016 373.581818 95.579016 c
369.921439 95.579016 366.410487 94.124732 363.822208 91.536453 c
361.233929 88.948174 359.779644 85.437221 359.779644 81.776842 c
359.779644 78.116463 361.233929 74.60551 363.822208 72.017231 c
366.410487 69.428952 369.921439 67.974668 373.581818 67.974668 c
cl
gsave
fill
grestore
stroke
grestore
0.993 0.906 0.144 setrgbcolor
gsave
334.8 217.4 54 36 clipbox
180.818182 66.765759 m
183.099545 66.765759 185.287777 67.672154 186.900944 69.285322 c
188.514112 70.898489 189.420507 73.086721 189.420507 75.368084 c
189.420507 77.649448 188.514112 79.837679 186.900944 81.450847 c
185.287777 83.064014 183.099545 83.970409 180.818182 83.970409 c
178.536818 83.970409 176.348587 83.064014 174.735419 81.450847 c
173.122252 79.837679 172.215857 77.649448 172.215857 75.368084 c
172.215857 73.086721 173.122252 70.898489 174.735419 69.285322 c
176.348587 67.672154 178.536818 66.765759 180.818182 66.765759 c
cl
gsave
fill
grestore
stroke
grestore
gsave
334.8 217.4 54 36 clipbox
231.545455 86.059829 m
233.080428 86.059829 234.55274 86.669681 235.638131 87.755071 c
236.723521 88.840461 237.333373 90.312773 237.333373 91.847747 c
237.333373 93.382721 236.723521 94.855033 235.638131 95.940424 c
234.55274 97.025814 233.080428 97.635666 231.545455 97.635666 c
230.010481 97.635666 228.538169 97.025814 227.452778 95.940424 c
226.367388 94.855033 225.757536 93.382721 225.757536 91.847747 c
225.757536 90.312773 226.367388 88.840461 227.452778 87.755071 c
228.538169 86.669681 230.010481 86.059829 231.545455 86.059829 c
cl
gsave
fill
grestore
stroke
grestore
0.267 0.005 0.329 setrgbcolor
gsave
334.8 217.4 54 36 clipbox
69.218182 57.92572 m
72.629935 57.92572 75.902411 59.281224 78.314885 61.693697 c
80.727358 64.106171 82.082862 67.378647 82.082862 70.7904 c
82.082862 74.202153 80.727358 77.474629 78.314885 79.887103 c
75.902411 82.299576 72.629935 83.65508 69.218182 83.65508 c
65.806429 83.65508 62.533953 82.299576 60.121479 79.887103 c
57.709005 77.474629 56.353501 74.202153 56.353501 70.7904 c
56.353501 67.378647 57.709005 64.106171 60.121479 61.693697 c
62.533953 59.281224 65.806429 57.92572 69.218182 57.92572 c
cl
gsave
fill
grestore
stroke
grestore
gsave
334.8 217.4 54 36 clipbox
89.509091 61.9342 m
91.979184 61.9342 94.348441 62.915579 96.095061 64.662198 c
97.84168 66.408818 98.823059 68.778075 98.823059 71.248168 c
98.823059 73.718262 97.84168 76.087519 96.095061 77.834138 c
94.348441 79.580758 91.979184 80.562136 89.509091 80.562136 c
87.038998 80.562136 84.669741 79.580758 82.923121 77.834138 c
81.176501 76.087519 80.195123 73.718262 80.195123 71.248168 c
80.195123 68.778075 81.176501 66.408818 82.923121 64.662198 c
84.669741 62.915579 87.038998 61.9342 89.509091 61.9342 c
cl
gsave
fill
grestore
stroke
grestore
gsave
334.8 217.4 54 36 clipbox
201.109091 54.946653 m
202.518665 54.946653 203.870696 55.506683 204.867415 56.503402 c
205.864134 57.500121 206.424164 58.852153 206.424164 60.261726 c
206.424164 61.6713 205.864134 63.023331 204.867415 64.02005 c
203.870696 65.01677 202.518665 65.576799 201.109091 65.576799 c
199.699517 65.576799 198.347486 65.01677 197.350767 64.02005 c
196.354048 63.023331 195.794018 61.6713 195.794018 60.261726 c
195.794018 58.852153 196.354048 57.500121 197.350767 56.503402 c
198.347486 55.506683 199.699517 54.946653 201.109091 54.946653 c
cl
gsave
fill
grestore
stroke
grestore
gsave
334.8 217.4 54 36 clipbox
241.690909 72.742155 m
245.786559 72.742155 249.715012 74.369374 252.611074 77.265435 c
255.507135 80.161497 257.134354 84.08995 257.134354 88.1856 c
257.134354 92.28125 255.507135 96.209703 252.611074 99.105765 c
249.715012 102.001826 245.786559 103.629045 241.690909 103.629045 c
237.59526 103.629045 233.666806 102.001826 230.770744 99.105765 c
227.874683 96.209703 226.247464 92.28125 226.247464 88.1856 c
226.247464 84.08995 227.874683 80.161497 230.770744 77.265435 c
233.666806 74.369374 237.59526 72.742155 241.690909 72.742155 c
cl
gsave
fill
grestore
stroke
grestore
gsave
334.8 217.4 54 36 clipbox
241.690909 65.502482 m
245.27851 65.502482 248.719655 66.927851 251.256472 69.464668 c
253.793289 72.001485 255.218658 75.442631 255.218658 79.030232 c
255.218658 82.617833 253.793289 86.058978 251.256472 88.595795 c
248.719655 91.132612 245.27851 92.557981 241.690909 92.557981 c
238.103308 92.557981 234.662163 91.132612 232.125346 88.595795 c
229.588529 86.058978 228.16316 82.617833 228.16316 79.030232 c
228.16316 75.442631 229.588529 72.001485 232.125346 69.464668 c
234.662163 66.927851 238.103308 65.502482 241.690909 65.502482 c
cl
gsave
fill
grestore
stroke
grestore
gsave
334.8 217.4 54 36 clipbox
140.236364 70.130931 m
143.6891 70.130931 147.000886 71.502718 149.44234 73.944171 c
151.883793 76.385625 153.25558 79.697411 153.25558 83.150147 c
153.25558 86.602884 151.883793 89.91467 149.44234 92.356124 c
147.000886 94.797577 143.6891 96.169364 140.236364 96.169364 c
136.783627 96.169364 133.471841 94.797577 131.030387 92.356124 c
128.588934 89.91467 127.217147 86.602884 127.217147 83.150147 c
127.217147 79.697411 128.588934 76.385625 131.030387 73.944171 c
133.471841 71.502718 136.783627 70.130931 140.236364 70.130931 c
cl
gsave
fill
grestore
stroke
grestore
gsave
334.8 217.4 54 36 clipbox
140.236364 45.914764 m
144.648231 45.914764 148.879993 47.667617 151.999654 50.787278 c
155.119315 53.906939 156.872168 58.138701 156.872168 62.550568 c
156.872168 66.962435 155.119315 71.194198 151.999654 74.313859 c
148.879993 77.43352 144.648231 79.186373 140.236364 79.186373 c
135.824497 79.186373 131.592734 77.43352 128.473073 74.313859 c
125.353412 71.194198 123.600559 66.962435 123.600559 62.550568 c
123.600559 58.138701 125.353412 53.906939 128.473073 50.787278 c
131.592734 47.667617 135.824497 45.914764 140.236364 45.914764 c
cl
gsave
fill
grestore
stroke
grestore
0.993 0.906 0.144 setrgbcolor
gsave
334.8 217.4 54 36 clipbox
261.981818 41.301241 m
267.010198 41.301241 271.833305 43.299037 275.388906 46.854639 c
278.944507 50.41024 280.942303 55.233347 280.942303 60.261726 c
280.942303 65.290106 278.944507 70.113213 275.388906 73.668814 c
271.833305 77.224415 267.010198 79.222212 261.981818 79.222212 c
256.953439 79.222212 252.130332 77.224415 248.574731 73.668814 c
245.019129 70.113213 243.021333 65.290106 243.021333 60.261726 c
243.021333 55.233347 245.019129 50.41024 248.574731 46.854639 c
252.130332 43.299037 256.953439 41.301241 261.981818 41.301241 c
cl
gsave
fill
grestore
stroke
grestore
0.267 0.005 0.329 setrgbcolor
gsave
334.8 217.4 54 36 clipbox
261.981818 57.25044 m
264.115838 57.25044 266.162742 58.098296 267.671722 59.607276 c
269.180702 61.116256 270.028557 63.163159 270.028557 65.297179 c
270.028557 67.431199 269.180702 69.478102 267.671722 70.987082 c
266.162742 72.496062 264.115838 73.343917 261.981818 73.343917 c
259.847798 73.343917 257.800895 72.496062 256.291915 70.987082 c
254.782935 69.478102 253.93508 67.431199 253.93508 65.297179 c
253.93508 63.163159 254.782935 61.116256 256.291915 59.607276 c
257.800895 58.098296 259.847798 57.25044 261.981818 57.25044 c
cl
gsave
fill
grestore
stroke
grestore
gsave
334.8 217.4 54 36 clipbox
353.290909 52.536104 m
357.282194 52.536104 361.110543 54.121858 363.932807 56.944123 c
366.755072 59.766387 368.340826 63.594736 368.340826 67.586021 c
368.340826 71.577306 366.755072 75.405655 363.932807 78.227919 c
361.110543 81.050184 357.282194 82.635938 353.290909 82.635938 c
349.299624 82.635938 345.471275 81.050184 342.649011 78.227919 c
339.826746 75.405655 338.240992 71.577306 338.240992 67.586021 c
338.240992 63.594736 339.826746 59.766387 342.649011 56.944123 c
345.471275 54.121858 349.299624 52.536104 353.290909 52.536104 c
cl
gsave
fill
grestore
stroke
grestore
0.993 0.906 0.144 setrgbcolor
gsave
334.8 217.4 54 36 clipbox
160.527273 54.535823 m
163.745422 54.535823 166.832198 55.814408 169.107774 58.089983 c
171.383349 60.365559 172.661934 63.452334 172.661934 66.670484 c
172.661934 69.888634 171.383349 72.97541 169.107774 75.250985 c
166.832198 77.526561 163.745422 78.805145 160.527273 78.805145 c
157.309123 78.805145 154.222347 77.526561 151.946772 75.250985 c
149.671196 72.97541 148.392612 69.888634 148.392612 66.670484 c
148.392612 63.452334 149.671196 60.365559 151.946772 58.089983 c
154.222347 55.814408 157.309123 54.535823 160.527273 54.535823 c
cl
gsave
fill
grestore
stroke
grestore
0.267 0.005 0.329 setrgbcolor
gsave
334.8 217.4 54 36 clipbox
211.254545 69.966766 m
214.508016 69.966766 217.62867 71.259384 219.929221 73.559935 c
222.229772 75.860486 223.52239 78.98114 223.52239 82.234611 c
223.52239 85.488081 222.229772 88.608735 219.929221 90.909286 c
217.62867 93.209837 214.508016 94.502455 211.254545 94.502455 c
208.001075 94.502455 204.880421 93.209837 202.57987 90.909286 c
200.279319 88.608735 198.986701 85.488081 198.986701 82.234611 c
198.986701 78.98114 200.279319 75.860486 202.57987 73.559935 c
204.880421 71.259384 208.001075 69.966766 211.254545 69.966766 c
cl
gsave
fill
grestore
stroke
grestore
0.993 0.906 0.144 setrgbcolor
gsave
334.8 217.4 54 36 clipbox
302.563636 63.707938 m
304.806132 63.707938 306.957083 64.598891 308.542767 66.184575 c
310.128451 67.770259 311.019404 69.92121 311.019404 72.163705 c
311.019404 74.406201 310.128451 76.557152 308.542767 78.142836 c
306.957083 79.72852 304.806132 80.619473 302.563636 80.619473 c
300.321141 80.619473 298.17019 79.72852 296.584506 78.142836 c
294.998822 76.557152 294.107869 74.406201 294.107869 72.163705 c
294.107869 69.92121 294.998822 67.770259 296.584506 66.184575 c
298.17019 64.598891 300.321141 63.707938 302.563636 63.707938 c
cl
gsave
fill
grestore
stroke
grestore
0.267 0.005 0.329 setrgbcolor
gsave
334.8 217.4 54 36 clipbox
302.563636 55.128253 m
305.746074 55.128253 308.798595 56.392648 311.048918 58.642971 c
313.299241 60.893294 314.563636 63.945815 314.563636 67.128253 c
314.563636 70.31069 313.299241 73.363211 311.048918 75.613534 c
308.798595 77.863857 305.746074 79.128253 302.563636 79.128253 c
299.381199 79.128253 296.328678 77.863857 294.078355 75.613534 c
291.828032 73.363211 290.563636 70.31069 290.563636 67.128253 c
290.563636 63.945815 291.828032 60.893294 294.078355 58.642971 c
296.328678 56.392648 299.381199 55.128253 302.563636 55.128253 c
cl
gsave
fill
grestore
stroke
grestore
gsave
334.8 217.4 54 36 clipbox
261.981818 65.185991 m
263.589527 65.185991 265.131604 65.82474 266.268425 66.961561 c
267.405247 68.098383 268.043996 69.64046 268.043996 71.248168 c
268.043996 72.855877 267.405247 74.397954 266.268425 75.534775 c
265.131604 76.671597 263.589527 77.310346 261.981818 77.310346 c
260.37411 77.310346 258.832033 76.671597 257.695211 75.534775 c
256.55839 74.397954 255.91964 72.855877 255.91964 71.248168 c
255.91964 69.64046 256.55839 68.098383 257.695211 66.961561 c
258.832033 65.82474 260.37411 65.185991 261.981818 65.185991 c
cl
gsave
fill
grestore
stroke
grestore
0.993 0.906 0.144 setrgbcolor
gsave
334.8 217.4 54 36 clipbox
221.4 60.568187 m
223.261151 60.568187 225.046326 61.30763 226.362358 62.623663 c
227.678391 63.939696 228.417834 65.72487 228.417834 67.586021 c
228.417834 69.447172 227.678391 71.232347 226.362358 72.548379 c
225.046326 73.864412 223.261151 74.603855 221.4 74.603855 c
219.538849 74.603855 217.753674 73.864412 216.437642 72.548379 c
215.121609 71.232347 214.382166 69.447172 214.382166 67.586021 c
214.382166 65.72487 215.121609 63.939696 216.437642 62.623663 c
217.753674 61.30763 219.538849 60.568187 221.4 60.568187 c
cl
gsave
fill
grestore
stroke
grestore
0.267 0.005 0.329 setrgbcolor
gsave
334.8 217.4 54 36 clipbox
201.109091 61.074673 m
203.807133 61.074673 206.395034 62.146617 208.302838 64.054421 c
210.210642 65.962225 211.282586 68.550126 211.282586 71.248168 c
211.282586 73.946211 210.210642 76.534112 208.302838 78.441916 c
206.395034 80.34972 203.807133 81.421663 201.109091 81.421663 c
198.411049 81.421663 195.823148 80.34972 193.915344 78.441916 c
192.00754 76.534112 190.935596 73.946211 190.935596 71.248168 c
190.935596 68.550126 192.00754 65.962225 193.915344 64.054421 c
195.823148 62.146617 198.411049 61.074673 201.109091 61.074673 c
cl
gsave
fill
grestore
stroke
grestore
gsave
334.8 217.4 54 36 clipbox
231.545455 60.729489 m
235.913262 60.729489 240.102763 62.464837 243.191269 65.553343 c
246.279775 68.641849 248.015124 72.831351 248.015124 77.199158 c
248.015124 81.566965 246.279775 85.756466 243.191269 88.844973 c
240.102763 91.933479 235.913262 93.668827 231.545455 93.668827 c
227.177647 93.668827 222.988146 91.933479 219.89964 88.844973 c
216.811134 85.756466 215.075785 81.566965 215.075785 77.199158 c
215.075785 72.831351 216.811134 68.641849 219.89964 65.553343 c
222.988146 62.464837 227.177647 60.729489 231.545455 60.729489 c
cl
gsave
fill
grestore
stroke
grestore
gsave
334.8 217.4 54 36 clipbox
241.690909 57.645663 m
243.598713 57.645663 245.428635 58.403642 246.777657 59.752663 c
248.126678 61.101684 248.884656 62.931606 248.884656 64.839411 c
248.884656 66.747215 248.126678 68.577137 246.777657 69.926158 c
245.428635 71.275179 243.598713 72.033158 241.690909 72.033158 c
239.783105 72.033158 237.953183 71.275179 236.604162 69.926158 c
235.25514 68.577137 234.497162 66.747215 234.497162 64.839411 c
234.497162 62.931606 235.25514 61.101684 236.604162 59.752663 c
237.953183 58.403642 239.783105 57.645663 241.690909 57.645663 c
cl
gsave
fill
grestore
stroke
grestore
gsave
334.8 217.4 54 36 clipbox
79.363636 66.313633 m
81.4007 66.313633 83.354605 67.122967 84.795027 68.563389 c
86.235448 70.00381 87.044782 71.957715 87.044782 73.994779 c
87.044782 76.031843 86.235448 77.985748 84.795027 79.426169 c
83.354605 80.866591 81.4007 81.675925 79.363636 81.675925 c
77.326573 81.675925 75.372668 80.866591 73.932246 79.426169 c
72.491825 77.985748 71.682491 76.031843 71.682491 73.994779 c
71.682491 71.957715 72.491825 70.00381 73.932246 68.563389 c
75.372668 67.122967 77.326573 66.313633 79.363636 66.313633 c
cl
gsave
fill
grestore
stroke
grestore
0.993 0.906 0.144 setrgbcolor
gsave
334.8 217.4 54 36 clipbox
333 67.681296 m
335.281363 67.681296 337.469595 68.587691 339.082763 70.200859 c
340.69593 71.814026 341.602325 74.002258 341.602325 76.283621 c
341.602325 78.564984 340.69593 80.753216 339.082763 82.366384 c
337.469595 83.979551 335.281363 84.885946 333 84.885946 c
330.718637 84.885946 328.530405 83.979551 326.917237 82.366384 c
325.30407 80.753216 324.397675 78.564984 324.397675 76.283621 c
324.397675 74.002258 325.30407 71.814026 326.917237 70.200859 c
328.530405 68.587691 330.718637 67.681296 333 67.681296 c
cl
gsave
fill
grestore
stroke
grestore
gsave
334.8 217.4 54 36 clipbox
180.818182 62.596505 m
183.476835 62.596505 186.026954 63.652799 187.906905 65.53275 c
189.786857 67.412702 190.843151 69.962821 190.843151 72.621474 c
190.843151 75.280126 189.786857 77.830246 187.906905 79.710197 c
186.026954 81.590149 183.476835 82.646443 180.818182 82.646443 c
178.159529 82.646443 175.60941 81.590149 173.729458 79.710197 c
171.849507 77.830246 170.793213 75.280126 170.793213 72.621474 c
170.793213 69.962821 171.849507 67.412702 173.729458 65.53275 c
175.60941 63.652799 178.159529 62.596505 180.818182 62.596505 c
cl
gsave
fill
grestore
stroke
grestore
0.267 0.005 0.329 setrgbcolor
gsave
334.8 217.4 54 36 clipbox
343.145455 48.523184 m
346.379954 48.523184 349.482412 49.808264 351.769549 52.095401 c
354.056685 54.382537 355.341765 57.484995 355.341765 60.719495 c
355.341765 63.953994 354.056685 67.056452 351.769549 69.343589 c
349.482412 71.630725 346.379954 72.915806 343.145455 72.915806 c
339.910955 72.915806 336.808497 71.630725 334.52136 69.343589 c
332.234224 67.056452 330.949144 63.953994 330.949144 60.719495 c
330.949144 57.484995 332.234224 54.382537 334.52136 52.095401 c
336.808497 49.808264 339.910955 48.523184 343.145455 48.523184 c
cl
gsave
fill
grestore
stroke
grestore
gsave
334.8 217.4 54 36 clipbox
282.272727 38.449488 m
287.693196 38.449488 292.892386 40.603063 296.725236 44.435913 c
300.558086 48.268763 302.711661 53.467953 302.711661 58.888421 c
302.711661 64.30889 300.558086 69.508079 296.725236 73.340929 c
292.892386 77.17378 287.693196 79.327354 282.272727 79.327354 c
276.852259 79.327354 271.653069 77.17378 267.820219 73.340929 c
263.987369 69.508079 261.833794 64.30889 261.833794 58.888421 c
261.833794 53.467953 263.987369 48.268763 267.820219 44.435913 c
271.653069 40.603063 276.852259 38.449488 282.272727 38.449488 c
cl
gsave
fill
grestore
stroke
grestore
gsave
334.8 217.4 54 36 clipbox
99.654545 50.84965 m
104.578689 50.84965 109.301816 52.806033 112.783711 56.287929 c
116.265607 59.769824 118.22199 64.492951 118.22199 69.417095 c
118.22199 74.341239 116.265607 79.064365 112.783711 82.546261 c
109.301816 86.028156 104.578689 87.984539 99.654545 87.984539 c
94.730402 87.984539 90.007275 86.028156 86.525379 82.546261 c
83.043484 79.064365 81.087101 74.341239 81.087101 69.417095 c
81.087101 64.492951 83.043484 59.769824 86.525379 56.287929 c
90.007275 52.806033 94.730402 50.84965 99.654545 50.84965 c
cl
gsave
fill
grestore
stroke
grestore
gsave
334.8 217.4 54 36 clipbox
241.690909 68.070824 m
243.626165 68.070824 245.482418 68.83971 246.850851 70.208142 c
248.219284 71.576575 248.988169 73.432828 248.988169 75.368084 c
248.988169 77.30334 248.219284 79.159593 246.850851 80.528026 c
245.482418 81.896459 243.626165 82.665344 241.690909 82.665344 c
239.755653 82.665344 237.8994 81.896459 236.530967 80.528026 c
235.162535 79.159593 234.393649 77.30334 234.393649 75.368084 c
234.393649 73.432828 235.162535 71.576575 236.530967 70.208142 c
237.8994 68.83971 239.755653 68.070824 241.690909 68.070824 c
cl
gsave
fill
grestore
stroke
grestore
gsave
334.8 217.4 54 36 clipbox
251.836364 53.272723 m
255.389491 53.272723 258.797571 54.684396 261.310011 57.196837 c
263.822452 59.709277 265.234125 63.117356 265.234125 66.670484 c
265.234125 70.223612 263.822452 73.631691 261.310011 76.144132 c
258.797571 78.656573 255.389491 80.068245 251.836364 80.068245 c
248.283236 80.068245 244.875157 78.656573 242.362716 76.144132 c
239.850275 73.631691 238.438603 70.223612 238.438603 66.670484 c
238.438603 63.117356 239.850275 59.709277 242.362716 57.196837 c
244.875157 54.684396 248.283236 53.272723 251.836364 53.272723 c
cl
gsave
fill
grestore
stroke
grestore
gsave
334.8 217.4 54 36 clipbox
99.654545 50.288848 m
103.634801 50.288848 107.452572 51.87022 110.267038 54.684686 c
113.081504 57.499152 114.662876 61.316923 114.662876 65.297179 c
114.662876 69.277435 113.081504 73.095206 110.267038 75.909672 c
107.452572 78.724138 103.634801 80.30551 99.654545 80.30551 c
95.67429 80.30551 91.856519 78.724138 89.042053 75.909672 c
86.227587 73.095206 84.646214 69.277435 84.646214 65.297179 c
84.646214 61.316923 86.227587 57.499152 89.042053 54.684686 c
91.856519 51.87022 95.67429 50.288848 99.654545 50.288848 c
cl
gsave
fill
grestore
stroke
grestore
gsave
334.8 217.4 54 36 clipbox
282.272727 60.814769 m
284.554091 60.814769 286.742322 61.721165 288.35549 63.334332 c
289.968657 64.9475 290.875053 67.135731 290.875053 69.417095 c
290.875053 71.698458 289.968657 73.88669 288.35549 75.499857 c
286.742322 77.113025 284.554091 78.01942 282.272727 78.01942 c
279.991364 78.01942 277.803132 77.113025 276.189965 75.499857 c
274.576797 73.88669 273.670402 71.698458 273.670402 69.417095 c
273.670402 67.135731 274.576797 64.9475 276.189965 63.334332 c
277.803132 61.721165 279.991364 60.814769 282.272727 60.814769 c
cl
gsave
fill
grestore
stroke
grestore
gsave
334.8 217.4 54 36 clipbox
312.709091 59.128253 m
314.830716 59.128253 316.86573 59.971183 318.365945 61.471398 c
319.86616 62.971614 320.709091 65.006628 320.709091 67.128253 c
320.709091 69.249877 319.86616 71.284892 318.365945 72.785107 c
316.86573 74.285322 314.830716 75.128253 312.709091 75.128253 c
310.587466 75.128253 308.552452 74.285322 307.052237 72.785107 c
305.552021 71.284892 304.709091 69.249877 304.709091 67.128253 c
304.709091 65.006628 305.552021 62.971614 307.052237 61.471398 c
308.552452 59.971183 310.587466 59.128253 312.709091 59.128253 c
cl
gsave
fill
grestore
stroke
grestore
gsave
334.8 217.4 54 36 clipbox
231.545455 59.713662 m
234.240236 59.713662 236.82501 60.784311 238.730508 62.689809 c
240.636007 64.595308 241.706655 67.180081 241.706655 69.874863 c
241.706655 72.569645 240.636007 75.154419 238.730508 77.059917 c
236.82501 78.965416 234.240236 80.036064 231.545455 80.036064 c
228.850673 80.036064 226.265899 78.965416 224.360401 77.059917 c
222.454902 75.154419 221.384254 72.569645 221.384254 69.874863 c
221.384254 67.180081 222.454902 64.595308 224.360401 62.689809 c
226.265899 60.784311 228.850673 59.713662 231.545455 59.713662 c
cl
gsave
fill
grestore
stroke
grestore
gsave
334.8 217.4 54 36 clipbox
170.672727 59.415954 m
172.839454 59.415954 174.91773 60.276804 176.449837 61.808911 c
177.981945 63.341019 178.842795 65.419294 178.842795 67.586021 c
178.842795 69.752748 177.981945 71.831024 176.449837 73.363131 c
174.91773 74.895239 172.839454 75.756088 170.672727 75.756088 c
168.506 75.756088 166.427725 74.895239 164.895617 73.363131 c
163.36351 71.831024 162.50266 69.752748 162.50266 67.586021 c
162.50266 65.419294 163.36351 63.341019 164.895617 61.808911 c
166.427725 60.276804 168.506 59.415954 170.672727 59.415954 c
cl
gsave
fill
grestore
stroke
grestore
gsave
334.8 217.4 54 36 clipbox
190.963636 49.197832 m
195.71884 49.197832 200.279922 51.087094 203.642359 54.44953 c
207.004795 57.811967 208.894057 62.373049 208.894057 67.128253 c
208.894057 71.883456 207.004795 76.444538 203.642359 79.806975 c
200.279922 83.169411 195.71884 85.058674 190.963636 85.058674 c
186.208433 85.058674 181.64735 83.169411 178.284914 79.806975 c
174.922478 76.444538 173.033215 71.883456 173.033215 67.128253 c
173.033215 62.373049 174.922478 57.811967 178.284914 54.44953 c
181.64735 51.087094 186.208433 49.197832 190.963636 49.197832 c
cl
gsave
fill
grestore
stroke
grestore
gsave
334.8 217.4 54 36 clipbox
373.581818 55.286492 m
378.543314 55.286492 383.302267 57.257715 386.810575 60.766022 c
390.318882 64.27433 392.290105 69.033283 392.290105 73.994779 c
392.290105 78.956275 390.318882 83.715228 386.810575 87.223536 c
383.302267 90.731843 378.543314 92.703066 373.581818 92.703066 c
368.620322 92.703066 363.861369 90.731843 360.353062 87.223536 c
356.844754 83.715228 354.873531 78.956275 354.873531 73.994779 c
354.873531 69.033283 356.844754 64.27433 360.353062 60.766022 c
363.861369 57.257715 368.620322 55.286492 373.581818 55.286492 c
cl
gsave
fill
grestore
stroke
grestore
gsave
334.8 217.4 54 36 clipbox
180.818182 49.710241 m
184.709083 49.710241 188.441146 51.256113 191.192429 54.007395 c
193.943711 56.758678 195.489583 60.490741 195.489583 64.381642 c
195.489583 68.272543 193.943711 72.004607 191.192429 74.755889 c
188.441146 77.507172 184.709083 79.053043 180.818182 79.053043 c
176.927281 79.053043 173.195217 77.507172 170.443935 74.755889 c
167.692652 72.004607 166.146781 68.272543 166.146781 64.381642 c
166.146781 60.490741 167.692652 56.758678 170.443935 54.007395 c
173.195217 51.256113 176.927281 49.710241 180.818182 49.710241 c
cl
gsave
fill
grestore
stroke
grestore
gsave
334.8 217.4 54 36 clipbox
119.945455 80.953208 m
123.198925 80.953208 126.319579 82.245826 128.62013 84.546377 c
130.920681 86.846928 132.213299 89.967582 132.213299 93.221053 c
132.213299 96.474523 130.920681 99.595178 128.62013 101.895728 c
126.319579 104.196279 123.198925 105.488897 119.945455 105.488897 c
116.691984 105.488897 113.57133 104.196279 111.270779 101.895728 c
108.970228 99.595178 107.67761 96.474523 107.67761 93.221053 c
107.67761 89.967582 108.970228 86.846928 111.270779 84.546377 c
113.57133 82.245826 116.691984 80.953208 119.945455 80.953208 c
cl
gsave
fill
grestore
stroke
grestore
gsave
334.8 217.4 54 36 clipbox
282.272727 63.969381 m
286.14551 63.969381 289.860195 65.508054 292.598665 68.246525 c
295.337136 70.984996 296.875809 74.699681 296.875809 78.572463 c
296.875809 82.445246 295.337136 86.159931 292.598665 88.898401 c
289.860195 91.636872 286.14551 93.175545 282.272727 93.175545 c
278.399945 93.175545 274.68526 91.636872 271.946789 88.898401 c
269.208318 86.159931 267.669645 82.445246 267.669645 78.572463 c
267.669645 74.699681 269.208318 70.984996 271.946789 68.246525 c
274.68526 65.508054 278.399945 63.969381 282.272727 63.969381 c
cl
gsave
fill
grestore
stroke
grestore
gsave
334.8 217.4 54 36 clipbox
282.272727 70.42328 m
286.98335 70.42328 291.501671 72.29483 294.832584 75.625743 c
298.163497 78.956656 300.035047 83.474978 300.035047 88.1856 c
300.035047 92.896222 298.163497 97.414544 294.832584 100.745457 c
291.501671 104.07637 286.98335 105.94792 282.272727 105.94792 c
277.562105 105.94792 273.043784 104.07637 269.712871 100.745457 c
266.381958 97.414544 264.510408 92.896222 264.510408 88.1856 c
264.510408 83.474978 266.381958 78.956656 269.712871 75.625743 c
273.043784 72.29483 277.562105 70.42328 282.272727 70.42328 c
cl
gsave
fill
grestore
stroke
grestore
gsave
334.8 217.4 54 36 clipbox
333 60.385582 m
334.666776 60.385582 336.265509 61.047799 337.444097 62.226387 c
338.622686 63.404975 339.284903 65.003709 339.284903 66.670484 c
339.284903 68.33726 338.622686 69.935993 337.444097 71.114581 c
336.265509 72.29317 334.666776 72.955387 333 72.955387 c
331.333224 72.955387 329.734491 72.29317 328.555903 71.114581 c
327.377314 69.935993 326.715097 68.33726 326.715097 66.670484 c
326.715097 65.003709 327.377314 63.404975 328.555903 62.226387 c
329.734491 61.047799 331.333224 60.385582 333 60.385582 c
cl
gsave
fill
grestore
stroke
grestore
gsave
334.8 217.4 54 36 clipbox
99.654545 91.289431 m
103.687464 91.289431 107.555748 92.891726 110.407452 95.74343 c
113.259156 98.595134 114.861452 102.463418 114.861452 106.496337 c
114.861452 110.529256 113.259156 114.397539 110.407452 117.249243 c
107.555748 120.100948 103.687464 121.703243 99.654545 121.703243 c
95.621627 121.703243 91.753343 120.100948 88.901639 117.249243 c
86.049935 114.397539 84.447639 110.529256 84.447639 106.496337 c
84.447639 102.463418 86.049935 98.595134 88.901639 95.74343 c
91.753343 92.891726 95.621627 91.289431 99.654545 91.289431 c
cl
gsave
fill
grestore
stroke
grestore
gsave
334.8 217.4 54 36 clipbox
373.581818 57.026019 m
377.474978 57.026019 381.209208 58.572787 383.962088 61.325667 c
386.714968 64.078547 388.261736 67.812777 388.261736 71.705937 c
388.261736 75.599097 386.714968 79.333327 383.962088 82.086207 c
381.209208 84.839086 377.474978 86.385855 373.581818 86.385855 c
369.688658 86.385855 365.954428 84.839086 363.201548 82.086207 c
360.448669 79.333327 358.9019 75.599097 358.9019 71.705937 c
358.9019 67.812777 360.448669 64.078547 363.201548 61.325667 c
365.954428 58.572787 369.688658 57.026019 373.581818 57.026019 c
cl
gsave
fill
grestore
stroke
grestore
gsave
334.8 217.4 54 36 clipbox
272.127273 61.687282 m
274.177243 61.687282 276.143528 62.501744 277.593076 63.951292 c
279.042623 65.40084 279.857085 67.367125 279.857085 69.417095 c
279.857085 71.467065 279.042623 73.43335 277.593076 74.882898 c
276.143528 76.332445 274.177243 77.146907 272.127273 77.146907 c
270.077303 77.146907 268.111018 76.332445 266.66147 74.882898 c
265.211922 73.43335 264.39746 71.467065 264.39746 69.417095 c
264.39746 67.367125 265.211922 65.40084 266.66147 63.951292 c
268.111018 62.501744 270.077303 61.687282 272.127273 61.687282 c
cl
gsave
fill
grestore
stroke
grestore
0.993 0.906 0.144 setrgbcolor
gsave
334.8 217.4 54 36 clipbox
251.836364 39.675653 m
256.810248 39.675653 261.581084 41.651798 265.098151 45.168865 c
268.615218 48.685933 270.591363 53.456769 270.591363 58.430653 c
270.591363 63.404537 268.615218 68.175373 265.098151 71.69244 c
261.581084 75.209507 256.810248 77.185652 251.836364 77.185652 c
246.86248 77.185652 242.091644 75.209507 238.574576 71.69244 c
235.057509 68.175373 233.081364 63.404537 233.081364 58.430653 c
233.081364 53.456769 235.057509 48.685933 238.574576 45.168865 c
242.091644 41.651798 246.86248 39.675653 251.836364 39.675653 c
cl
gsave
fill
grestore
stroke
grestore
0.267 0.005 0.329 setrgbcolor
gsave
334.8 217.4 54 36 clipbox
211.254545 66.832288 m
212.425651 66.832288 213.548948 67.297573 214.377044 68.125669 c
215.205141 68.953766 215.670426 70.077063 215.670426 71.248168 c
215.670426 72.419274 215.205141 73.542571 214.377044 74.370667 c
213.548948 75.198764 212.425651 75.664049 211.254545 75.664049 c
210.08344 75.664049 208.960143 75.198764 208.132046 74.370667 c
207.30395 73.542571 206.838665 72.419274 206.838665 71.248168 c
206.838665 70.077063 207.30395 68.953766 208.132046 68.125669 c
208.960143 67.297573 210.08344 66.832288 211.254545 66.832288 c
cl
gsave
fill
grestore
stroke
grestore
gsave
334.8 217.4 54 36 clipbox
69.218182 64.997937 m
72.575385 64.997937 75.795538 66.331768 78.169439 68.705669 c
80.54334 71.07957 81.877171 74.299723 81.877171 77.656926 c
81.877171 81.014129 80.54334 84.234282 78.169439 86.608183 c
75.795538 88.982084 72.575385 90.315915 69.218182 90.315915 c
65.860979 90.315915 62.640826 88.982084 60.266925 86.608183 c
57.893024 84.234282 56.559193 81.014129 56.559193 77.656926 c
56.559193 74.299723 57.893024 71.07957 60.266925 68.705669 c
62.640826 66.331768 65.860979 64.997937 69.218182 64.997937 c
cl
gsave
fill
grestore
stroke
grestore
gsave
334.8 217.4 54 36 clipbox
272.127273 64.588336 m
276.07871 64.588336 279.868838 66.158258 282.662926 68.952346 c
285.457015 71.746434 287.026937 75.536563 287.026937 79.488 c
287.026937 83.439437 285.457015 87.229566 282.662926 90.023654 c
279.868838 92.817742 276.07871 94.387664 272.127273 94.387664 c
268.175836 94.387664 264.385707 92.817742 261.591619 90.023654 c
258.797531 87.229566 257.227608 83.439437 257.227608 79.488 c
257.227608 75.536563 258.797531 71.746434 261.591619 68.952346 c
264.385707 66.158258 268.175836 64.588336 272.127273 64.588336 c
cl
gsave
fill
grestore
stroke
grestore
0.993 0.906 0.144 setrgbcolor
gsave
334.8 217.4 54 36 clipbox
89.509091 56.609504 m
91.448884 56.609504 93.30949 57.380192 94.681131 58.751833 c
96.052772 60.123475 96.82346 61.98408 96.82346 63.923874 c
96.82346 65.863667 96.052772 67.724273 94.681131 69.095914 c
93.30949 70.467555 91.448884 71.238243 89.509091 71.238243 c
87.569297 71.238243 85.708692 70.467555 84.337051 69.095914 c
82.96541 67.724273 82.194721 65.863667 82.194721 63.923874 c
82.194721 61.98408 82.96541 60.123475 84.337051 58.751833 c
85.708692 57.380192 87.569297 56.609504 89.509091 56.609504 c
cl
gsave
fill
grestore
stroke
grestore
0.267 0.005 0.329 setrgbcolor
gsave
334.8 217.4 54 36 clipbox
201.109091 72.346426 m
203.12446 72.346426 205.057556 73.147141 206.482637 74.572222 c
207.907718 75.997303 208.708433 77.930399 208.708433 79.945768 c
208.708433 81.961137 207.907718 83.894234 206.482637 85.319315 c
205.057556 86.744396 203.12446 87.54511 201.109091 87.54511 c
199.093722 87.54511 197.160626 86.744396 195.735545 85.319315 c
194.310463 83.894234 193.509749 81.961137 193.509749 79.945768 c
193.509749 77.930399 194.310463 75.997303 195.735545 74.572222 c
197.160626 73.147141 199.093722 72.346426 201.109091 72.346426 c
cl
gsave
fill
grestore
stroke
grestore
gsave
334.8 217.4 54 36 clipbox
150.381818 57.5113 m
153.053665 57.5113 155.61644 58.572836 157.505722 60.462118 c
159.395003 62.351399 160.456539 64.914174 160.456539 67.586021 c
160.456539 70.257868 159.395003 72.820643 157.505722 74.709924 c
155.61644 76.599206 153.053665 77.660742 150.381818 77.660742 c
147.709971 77.660742 145.147196 76.599206 143.257915 74.709924 c
141.368633 72.820643 140.307097 70.257868 140.307097 67.586021 c
140.307097 64.914174 141.368633 62.351399 143.257915 60.462118 c
145.147196 58.572836 147.709971 57.5113 150.381818 57.5113 c
cl
gsave
fill
grestore
stroke
grestore
gsave
334.8 217.4 54 36 clipbox
140.236364 51.555887 m
143.637794 51.555887 146.900368 52.907289 149.305542 55.312464 c
151.710716 57.717638 153.062119 60.980212 153.062119 64.381642 c
153.062119 67.783072 151.710716 71.045646 149.305542 73.450821 c
146.900368 75.855995 143.637794 77.207397 140.236364 77.207397 c
136.834934 77.207397 133.572359 75.855995 131.167185 73.450821 c
128.762011 71.045646 127.410608 67.783072 127.410608 64.381642 c
127.410608 60.980212 128.762011 57.717638 131.167185 55.312464 c
133.572359 52.907289 136.834934 51.555887 140.236364 51.555887 c
cl
gsave
fill
grestore
stroke
grestore
0.800 setlinewidth
0.000 setgray
gsave
/o {
gsave
newpath
translate
0.8 setlinewidth
1 setlinejoin
0 setlinecap
0 0 m
0 -3.5 l

gsave
0.000 setgray
fill
grestore
stroke
grestore
} bind def
59.0727 36 o
grestore
/DejaVuSans findfont
10.000 scalefont
setfont
gsave
55.893040 21.406250 translate
0.000000 rotate
0.000000 0 m /zero glyphshow
grestore
gsave
/o {
gsave
newpath
translate
0.8 setlinewidth
1 setlinejoin
0 setlinecap
0 0 m
0 -3.5 l

gsave
0.000 setgray
fill
grestore
stroke
grestore
} bind def
211.255 36 o
grestore
gsave
204.895170 21.406250 translate
0.000000 rotate
0.000000 0 m /one glyphshow
6.362305 0 m /five glyphshow
grestore
gsave
/o {
gsave
newpath
translate
0.8 setlinewidth
1 setlinejoin
0 setlinecap
0 0 m
0 -3.5 l

gsave
0.000 setgray
fill
grestore
stroke
grestore
} bind def
363.436 36 o
grestore
gsave
357.076989 21.406250 translate
0.000000 rotate
0.000000 0 m /three glyphshow
6.362305 0 m /zero glyphshow
grestore
gsave
191.704688 7.734375 translate
0.000000 rotate
0.000000 0 m /D glyphshow
7.700195 0 m /iacute glyphshow
10.478516 0 m /a glyphshow
16.606445 0 m /space glyphshow
19.785156 0 m /d glyphshow
26.132812 0 m /e glyphshow
32.285156 0 m /l glyphshow
35.063477 0 m /space glyphshow
38.242188 0 m /m glyphshow
47.983398 0 m /e glyphshow
54.135742 0 m /s glyphshow
grestore
gsave
/o {
gsave
newpath
translate
0.8 setlinewidth
1 setlinejoin
0 setlinecap
-0 0 m
-3.5 0 l

gsave
0.000 setgray
fill
grestore
stroke
grestore
} bind def
54 70.3326 o
grestore
gsave
40.640625 66.535757 translate
0.000000 rotate
0.000000 0 m /zero glyphshow
grestore
gsave
/o {
gsave
newpath
translate
0.8 setlinewidth
1 setlinejoin
0 setlinecap
-0 0 m
-3.5 0 l

gsave
0.000 setgray
fill
grestore
stroke
grestore
} bind def
54 116.109 o
grestore
gsave
27.921875 112.312599 translate
0.000000 rotate
0.000000 0 m /one glyphshow
6.362305 0 m /zero glyphshow
12.724609 0 m /zero glyphshow
grestore
gsave
/o {
gsave
newpath
translate
0.8 setlinewidth
1 setlinejoin
0 setlinecap
-0 0 m
-3.5 0 l

gsave
0.000 setgray
fill
grestore
stroke
grestore
} bind def
54 161.886 o
grestore
gsave
27.921875 158.089441 translate
0.000000 rotate
0.000000 0 m /two glyphshow
6.362305 0 m /zero glyphshow
12.724609 0 m /zero glyphshow
grestore
gsave
/o {
gsave
newpath
translate
0.8 setlinewidth
1 setlinejoin
0 setlinecap
-0 0 m
-3.5 0 l

gsave
0.000 setgray
fill
grestore
stroke
grestore
} bind def
54 207.663 o
grestore
gsave
27.921875 203.866283 translate
0.000000 rotate
0.000000 0 m /three glyphshow
6.362305 0 m /zero glyphshow
12.724609 0 m /zero glyphshow
grestore
gsave
/o {
gsave
newpath
translate
0.8 setlinewidth
1 setlinejoin
0 setlinecap
-0 0 m
-3.5 0 l

gsave
0.000 setgray
fill
grestore
stroke
grestore
} bind def
54 253.44 o
grestore
gsave
27.921875 249.643125 translate
0.000000 rotate
0.000000 0 m /four glyphshow
6.362305 0 m /zero glyphshow
12.724609 0 m /zero glyphshow
grestore
gsave
21.843750 103.876250 translate
90.000000 rotate
0.000000 0 m /R glyphshow
6.448242 0 m /e glyphshow
12.600586 0 m /t glyphshow
16.521484 0 m /r glyphshow
20.632812 0 m /a glyphshow
26.760742 0 m /s glyphshow
31.970703 0 m /o glyphshow
38.088867 0 m /space glyphshow
41.267578 0 m /a glyphshow
47.395508 0 m /l glyphshow
50.173828 0 m /space glyphshow
53.352539 0 m /l glyphshow
56.130859 0 m /l glyphshow
58.909180 0 m /e glyphshow
65.061523 0 m /g glyphshow
71.409180 0 m /a glyphshow
77.537109 0 m /r glyphshow
grestore
0 setlinejoin
2 setlinecap
gsave
54 36 m
54 253.44 l
stroke
grestore
gsave
388.8 36 m
388.8 253.44 l
stroke
grestore
gsave
54 36 m
388.8 36 l
stroke
grestore
gsave
54 253.44 m
388.8 253.44 l
stroke
grestore
gsave
343.145455 125.264842 translate
0.000000 rotate
0.000000 0 m /M glyphshow
8.627930 0 m /i glyphshow
11.406250 0 m /space glyphshow
14.584961 0 m /v glyphshow
20.502930 0 m /u glyphshow
26.840820 0 m /e glyphshow
32.993164 0 m /l glyphshow
35.771484 0 m /o glyphshow
grestore
/DejaVuSans findfont
12.000 scalefont
setfont
gsave
167.689063 259.440000 translate
0.000000 rotate
0.000000 0 m /R glyphshow
7.837891 0 m /e glyphshow
15.220703 0 m /t glyphshow
19.925781 0 m /r glyphshow
24.859375 0 m /a glyphshow
32.212891 0 m /s glyphshow
38.464844 0 m /o glyphshow
45.806641 0 m /s glyphshow
52.058594 0 m /space glyphshow
55.873047 0 m /e glyphshow
63.255859 0 m /n glyphshow
70.861328 0 m /space glyphshow
74.675781 0 m /E glyphshow
82.257812 0 m /E glyphshow
89.839844 0 m /U glyphshow
98.623047 0 m /U glyphshow
grestore

end
showpage
